Country;Pm2.5 value (2019)
Bangladesh;83.3
Pakistan;65.8
Mongolia;62
Afghanistan;58.8
India;58.1
Indonesia;51.7
Bahrain;46.8
Nepal;44.5
Uzbekistan;41.2
Iraq;39.6
China Mainland;39.1
United Arab Emirates;38.9
Kuwait;38.3
Bosnia & Herzegovina;34.6
Vietnam;34.1
Kyrgyzstan;33.2
North Macedonia;32.4
Syria;32.2
DR Congo;32.1
Myanmar;31
Ghana;30.3
Uganda;29.1
Armenia;25.5
Bulgaria;25.5
Sri Lanka;25.2
South Korea;24.8
Iran;24.3
Thailand;24.3
Kazakhstan;23.6
Kosovo;23.5
Macao SAR;23.5
Serbia;23.3
Peru;23.3
Laos;23.1
Chile;22.6
Greece;22.5
Saudi Arabia;22.1
South Africa;21.6
Nigeria;21.4
Algeria;21.2
Cambodia;21.1
Israel;20.8
Turkey;20.6
Hong Kong SAR;20.3
Guatemala;20.2
Ethiopia;20.1
Georgia;20.1
Mexico;20
Cyprus;19.7
Malaysia;19.4
Croatia;19.1
Singapore;19
Poland;18.7
Romania;18.3
Jordan;18.3
Egypt;18
Philippines;17.6
Taiwan;17.2
Italy;17.1
Ukraine;16.6
Slovakia;16.1
Angola;15.9
Brazil;15.8
Colombia;14.6
Argentina;14.6
Hungary;14.6
Lithuania;14.5
Czech Republic;14.5
Latvia;13.3
Belgium;12.5
France;12.3
Austria;12.2
Japan;11.4
Germany;11
Netherlands;10.9
Switzerland;10.9
Ireland;10.6
United Kingdom;10.5
Costa Rica;10.4
Puerto Rico;10.2
Russia;9.9
Spain;9.7
Luxembourg;9.6
Denmark;9.6
Malta;9.4
Portugal;9.3
USA;9
Ecuador;8.6
Australia;8
Canada;7.7
New Zealand;7.5
Norway;6.9
Sweden;6.6
Estonia;6.2
Finland;5.6
Iceland;5.6
U.S. Virgin Islands;3.5
Bahamas;3.3
