\relax 
\providecommand\hyper@newdestlabel[2]{}
\providecommand*\new@tpo@label[2]{}
\@nameuse{bbl@beforestart}
\catcode `"\active 
\providecommand\HyperFirstAtBeginDocument{\AtBeginDocument}
\HyperFirstAtBeginDocument{\ifx\hyper@anchor\@undefined
\global\let\oldcontentsline\contentsline
\gdef\contentsline#1#2#3#4{\oldcontentsline{#1}{#2}{#3}}
\global\let\oldnewlabel\newlabel
\gdef\newlabel#1#2{\newlabelxx{#1}#2}
\gdef\newlabelxx#1#2#3#4#5#6{\oldnewlabel{#1}{{#2}{#3}}}
\AtEndDocument{\ifx\hyper@anchor\@undefined
\let\contentsline\oldcontentsline
\let\newlabel\oldnewlabel
\fi}
\fi}
\global\let\hyper@last\relax 
\gdef\HyperFirstAtBeginDocument#1{#1}
\providecommand\HyField@AuxAddToFields[1]{}
\providecommand\HyField@AuxAddToCoFields[2]{}
\providecommand\BKM@entry[2]{}
\bibstyle{plainurl}
\BKM@entry{id=1,dest={73656374696F6E2E31},srcline={29}}{496E74726F64756374696F6E}
\BKM@entry{id=2,dest={73656374696F6E2E32},srcline={31}}{476F616C206F66207468652070726F6A656374}
\BKM@entry{id=3,dest={73656374696F6E2E33},srcline={39}}{436F75727365206F66207468652070726F6A656374}
\citation{Stanford.}
\BKM@entry{id=4,dest={73656374696F6E2E34},srcline={41}}{5461736B7320746F20626520646F6E6520756E74696C20746865207365636F6E64206D656574696E67}
\babel@aux{ngerman}{}
\@writefile{toc}{\contentsline {section}{\numberline {1}Introduction}{1}{section.1}\protected@file@percent }
\@writefile{toc}{\contentsline {section}{\numberline {2}Goal of the project}{1}{section.2}\protected@file@percent }
\@writefile{toc}{\contentsline {section}{\numberline {3}Course of the project}{1}{section.3}\protected@file@percent }
\newlabel{course}{{3}{1}{Course of the project}{section.3}{}}
\BKM@entry{id=5,dest={73656374696F6E2E35},srcline={47}}{5573656420746F6F6C73}
\citation{trello}
\citation{gitlab}
\citation{mendeley}
\citation{latex}
\citation{tensor}
\citation{mlflow}
\citation{scikit}
\BKM@entry{id=6,dest={73656374696F6E2E35},srcline={62}}{4C696E6B7320616E6420726566657272656E636573}
\bibdata{links}
\bibcite{gitlab}{1}
\bibcite{latex}{2}
\bibcite{mendeley}{3}
\@writefile{toc}{\contentsline {section}{\numberline {4}Tasks to be done until the second meeting}{2}{section.4}\protected@file@percent }
\@writefile{toc}{\contentsline {section}{\numberline {5}Used tools}{2}{section.5}\protected@file@percent }
\@writefile{toc}{\contentsline {section}{Links and referrences}{2}{section.5}\protected@file@percent }
\bibcite{mlflow}{4}
\bibcite{scikit}{5}
\bibcite{tensor}{6}
\bibcite{trello}{7}
\bibcite{Stanford.}{8}
