,Layer1,Layer2,Dropout,learning rate,epochs,val_split,TARGET DIFFERENCE
0,130.0,90.0,0.1,5e-05,100.0,0.25,[[0.02515125]]
1,130.0,90.0,0.12,5e-05,100.0,0.25,[[0.01907253]]
2,130.0,90.0,0.14,5e-05,100.0,0.25,[[0.03239346]]
3,130.0,90.0,0.16,5e-05,100.0,0.25,[[0.02229881]]
4,130.0,90.0,0.18,5e-05,100.0,0.25,[[0.01332521]]
5,130.0,90.0,0.2,5e-05,100.0,0.25,[[0.00319552]]
6,130.0,90.0,0.22,5e-05,100.0,0.25,[[-0.00154018]]
7,130.0,90.0,0.25,5e-05,100.0,0.25,[[-0.02017164]]
